{
  "1.0.2g": {
    "node": [
      "6.0.0"
    ],
    "ciphers": [
      "AES128-GCM-SHA256",
      "AES128-SHA",
      "AES128-SHA256",
      "AES256-GCM-SHA384",
      "AES256-SHA",
      "AES256-SHA256",
      "CAMELLIA128-SHA",
      "CAMELLIA256-SHA",
      "DES-CBC3-SHA",
      "DH-DSS-AES128-GCM-SHA256",
      "DH-DSS-AES128-SHA",
      "DH-DSS-AES128-SHA256",
      "DH-DSS-AES256-GCM-SHA384",
      "DH-DSS-AES256-SHA",
      "DH-DSS-AES256-SHA256",
      "DH-DSS-CAMELLIA128-SHA",
      "DH-DSS-CAMELLIA256-SHA",
      "DH-DSS-DES-CBC3-SHA",
      "DH-DSS-SEED-SHA",
      "DH-RSA-AES128-GCM-SHA256",
      "DH-RSA-AES128-SHA",
      "DH-RSA-AES128-SHA256",
      "DH-RSA-AES256-GCM-SHA384",
      "DH-RSA-AES256-SHA",
      "DH-RSA-AES256-SHA256",
      "DH-RSA-CAMELLIA128-SHA",
      "DH-RSA-CAMELLIA256-SHA",
      "DH-RSA-DES-CBC3-SHA",
      "DH-RSA-SEED-SHA",
      "DHE-DSS-AES128-GCM-SHA256",
      "DHE-DSS-AES128-SHA",
      "DHE-DSS-AES128-SHA256",
      "DHE-DSS-AES256-GCM-SHA384",
      "DHE-DSS-AES256-SHA",
      "DHE-DSS-AES256-SHA256",
      "DHE-DSS-CAMELLIA128-SHA",
      "DHE-DSS-CAMELLIA256-SHA",
      "DHE-DSS-SEED-SHA",
      "DHE-RSA-AES128-GCM-SHA256",
      "DHE-RSA-AES128-SHA",
      "DHE-RSA-AES128-SHA256",
      "DHE-RSA-AES256-GCM-SHA384",
      "DHE-RSA-AES256-SHA",
      "DHE-RSA-AES256-SHA256",
      "DHE-RSA-CAMELLIA128-SHA",
      "DHE-RSA-CAMELLIA256-SHA",
      "DHE-RSA-SEED-SHA",
      "ECDH-ECDSA-AES128-GCM-SHA256",
      "ECDH-ECDSA-AES128-SHA",
      "ECDH-ECDSA-AES128-SHA256",
      "ECDH-ECDSA-AES256-GCM-SHA384",
      "ECDH-ECDSA-AES256-SHA",
      "ECDH-ECDSA-AES256-SHA384",
      "ECDH-ECDSA-DES-CBC3-SHA",
      "ECDH-ECDSA-RC4-SHA",
      "ECDH-RSA-AES128-GCM-SHA256",
      "ECDH-RSA-AES128-SHA",
      "ECDH-RSA-AES128-SHA256",
      "ECDH-RSA-AES256-GCM-SHA384",
      "ECDH-RSA-AES256-SHA",
      "ECDH-RSA-AES256-SHA384",
      "ECDH-RSA-DES-CBC3-SHA",
      "ECDH-RSA-RC4-SHA",
      "ECDHE-ECDSA-AES128-GCM-SHA256",
      "ECDHE-ECDSA-AES128-SHA",
      "ECDHE-ECDSA-AES128-SHA256",
      "ECDHE-ECDSA-AES256-GCM-SHA384",
      "ECDHE-ECDSA-AES256-SHA",
      "ECDHE-ECDSA-AES256-SHA384",
      "ECDHE-ECDSA-DES-CBC3-SHA",
      "ECDHE-ECDSA-RC4-SHA",
      "ECDHE-RSA-AES128-GCM-SHA256",
      "ECDHE-RSA-AES128-SHA",
      "ECDHE-RSA-AES128-SHA256",
      "ECDHE-RSA-AES256-GCM-SHA384",
      "ECDHE-RSA-AES256-SHA",
      "ECDHE-RSA-AES256-SHA384",
      "ECDHE-RSA-DES-CBC3-SHA",
      "ECDHE-RSA-RC4-SHA",
      "EDH-DSS-DES-CBC3-SHA",
      "EDH-RSA-DES-CBC3-SHA",
      "IDEA-CBC-SHA",
      "PSK-3DES-EDE-CBC-SHA",
      "PSK-AES128-CBC-SHA",
      "PSK-AES256-CBC-SHA",
      "PSK-RC4-SHA",
      "RC4-MD5",
      "RC4-SHA",
      "SEED-SHA",
      "SRP-3DES-EDE-CBC-SHA",
      "SRP-AES-128-CBC-SHA",
      "SRP-AES-256-CBC-SHA",
      "SRP-DSS-3DES-EDE-CBC-SHA",
      "SRP-DSS-AES-128-CBC-SHA",
      "SRP-DSS-AES-256-CBC-SHA",
      "SRP-RSA-3DES-EDE-CBC-SHA",
      "SRP-RSA-AES-128-CBC-SHA",
      "SRP-RSA-AES-256-CBC-SHA"
    ]
  },
  "1.0.2h": {
    "node": [
      "6.6.0",
      "6.1.0",
      "6.2.0",
      "6.2.1",
      "6.2.2",
      "6.3.0",
      "6.3.1",
      "6.4.0",
      "6.5.0"
    ],
    "ciphers": [
      "AES128-GCM-SHA256",
      "AES128-SHA",
      "AES128-SHA256",
      "AES256-GCM-SHA384",
      "AES256-SHA",
      "AES256-SHA256",
      "CAMELLIA128-SHA",
      "CAMELLIA256-SHA",
      "DES-CBC3-SHA",
      "DH-DSS-AES128-GCM-SHA256",
      "DH-DSS-AES128-SHA",
      "DH-DSS-AES128-SHA256",
      "DH-DSS-AES256-GCM-SHA384",
      "DH-DSS-AES256-SHA",
      "DH-DSS-AES256-SHA256",
      "DH-DSS-CAMELLIA128-SHA",
      "DH-DSS-CAMELLIA256-SHA",
      "DH-DSS-DES-CBC3-SHA",
      "DH-DSS-SEED-SHA",
      "DH-RSA-AES128-GCM-SHA256",
      "DH-RSA-AES128-SHA",
      "DH-RSA-AES128-SHA256",
      "DH-RSA-AES256-GCM-SHA384",
      "DH-RSA-AES256-SHA",
      "DH-RSA-AES256-SHA256",
      "DH-RSA-CAMELLIA128-SHA",
      "DH-RSA-CAMELLIA256-SHA",
      "DH-RSA-DES-CBC3-SHA",
      "DH-RSA-SEED-SHA",
      "DHE-DSS-AES128-GCM-SHA256",
      "DHE-DSS-AES128-SHA",
      "DHE-DSS-AES128-SHA256",
      "DHE-DSS-AES256-GCM-SHA384",
      "DHE-DSS-AES256-SHA",
      "DHE-DSS-AES256-SHA256",
      "DHE-DSS-CAMELLIA128-SHA",
      "DHE-DSS-CAMELLIA256-SHA",
      "DHE-DSS-SEED-SHA",
      "DHE-RSA-AES128-GCM-SHA256",
      "DHE-RSA-AES128-SHA",
      "DHE-RSA-AES128-SHA256",
      "DHE-RSA-AES256-GCM-SHA384",
      "DHE-RSA-AES256-SHA",
      "DHE-RSA-AES256-SHA256",
      "DHE-RSA-CAMELLIA128-SHA",
      "DHE-RSA-CAMELLIA256-SHA",
      "DHE-RSA-SEED-SHA",
      "ECDH-ECDSA-AES128-GCM-SHA256",
      "ECDH-ECDSA-AES128-SHA",
      "ECDH-ECDSA-AES128-SHA256",
      "ECDH-ECDSA-AES256-GCM-SHA384",
      "ECDH-ECDSA-AES256-SHA",
      "ECDH-ECDSA-AES256-SHA384",
      "ECDH-ECDSA-DES-CBC3-SHA",
      "ECDH-ECDSA-RC4-SHA",
      "ECDH-RSA-AES128-GCM-SHA256",
      "ECDH-RSA-AES128-SHA",
      "ECDH-RSA-AES128-SHA256",
      "ECDH-RSA-AES256-GCM-SHA384",
      "ECDH-RSA-AES256-SHA",
      "ECDH-RSA-AES256-SHA384",
      "ECDH-RSA-DES-CBC3-SHA",
      "ECDH-RSA-RC4-SHA",
      "ECDHE-ECDSA-AES128-GCM-SHA256",
      "ECDHE-ECDSA-AES128-SHA",
      "ECDHE-ECDSA-AES128-SHA256",
      "ECDHE-ECDSA-AES256-GCM-SHA384",
      "ECDHE-ECDSA-AES256-SHA",
      "ECDHE-ECDSA-AES256-SHA384",
      "ECDHE-ECDSA-DES-CBC3-SHA",
      "ECDHE-ECDSA-RC4-SHA",
      "ECDHE-RSA-AES128-GCM-SHA256",
      "ECDHE-RSA-AES128-SHA",
      "ECDHE-RSA-AES128-SHA256",
      "ECDHE-RSA-AES256-GCM-SHA384",
      "ECDHE-RSA-AES256-SHA",
      "ECDHE-RSA-AES256-SHA384",
      "ECDHE-RSA-DES-CBC3-SHA",
      "ECDHE-RSA-RC4-SHA",
      "EDH-DSS-DES-CBC3-SHA",
      "EDH-RSA-DES-CBC3-SHA",
      "IDEA-CBC-SHA",
      "PSK-3DES-EDE-CBC-SHA",
      "PSK-AES128-CBC-SHA",
      "PSK-AES256-CBC-SHA",
      "PSK-RC4-SHA",
      "RC4-MD5",
      "RC4-SHA",
      "SEED-SHA",
      "SRP-3DES-EDE-CBC-SHA",
      "SRP-AES-128-CBC-SHA",
      "SRP-AES-256-CBC-SHA",
      "SRP-DSS-3DES-EDE-CBC-SHA",
      "SRP-DSS-AES-128-CBC-SHA",
      "SRP-DSS-AES-256-CBC-SHA",
      "SRP-RSA-3DES-EDE-CBC-SHA",
      "SRP-RSA-AES-128-CBC-SHA",
      "SRP-RSA-AES-256-CBC-SHA"
    ]
  },
  "1.0.2n": {
    "node": [
      "9.3.0",
      "9.4.0",
      "9.5.0",
      "9.6.0",
      "9.6.1",
      "9.7.0",
      "9.7.1",
      "9.8.0",
      "9.9.0",
      "6.12.2",
      "6.12.3",
      "6.13.0",
      "6.13.1",
      "8.9.3",
      "8.9.4",
      "8.10.0",
      "9.2.1"
    ],
    "ciphers": [
      "AES128-GCM-SHA256",
      "AES128-SHA",
      "AES128-SHA256",
      "AES256-GCM-SHA384",
      "AES256-SHA",
      "AES256-SHA256",
      "CAMELLIA128-SHA",
      "CAMELLIA256-SHA",
      "DES-CBC3-SHA",
      "DH-DSS-AES128-GCM-SHA256",
      "DH-DSS-AES128-SHA",
      "DH-DSS-AES128-SHA256",
      "DH-DSS-AES256-GCM-SHA384",
      "DH-DSS-AES256-SHA",
      "DH-DSS-AES256-SHA256",
      "DH-DSS-CAMELLIA128-SHA",
      "DH-DSS-CAMELLIA256-SHA",
      "DH-DSS-DES-CBC3-SHA",
      "DH-DSS-SEED-SHA",
      "DH-RSA-AES128-GCM-SHA256",
      "DH-RSA-AES128-SHA",
      "DH-RSA-AES128-SHA256",
      "DH-RSA-AES256-GCM-SHA384",
      "DH-RSA-AES256-SHA",
      "DH-RSA-AES256-SHA256",
      "DH-RSA-CAMELLIA128-SHA",
      "DH-RSA-CAMELLIA256-SHA",
      "DH-RSA-DES-CBC3-SHA",
      "DH-RSA-SEED-SHA",
      "DHE-DSS-AES128-GCM-SHA256",
      "DHE-DSS-AES128-SHA",
      "DHE-DSS-AES128-SHA256",
      "DHE-DSS-AES256-GCM-SHA384",
      "DHE-DSS-AES256-SHA",
      "DHE-DSS-AES256-SHA256",
      "DHE-DSS-CAMELLIA128-SHA",
      "DHE-DSS-CAMELLIA256-SHA",
      "DHE-DSS-SEED-SHA",
      "DHE-RSA-AES128-GCM-SHA256",
      "DHE-RSA-AES128-SHA",
      "DHE-RSA-AES128-SHA256",
      "DHE-RSA-AES256-GCM-SHA384",
      "DHE-RSA-AES256-SHA",
      "DHE-RSA-AES256-SHA256",
      "DHE-RSA-CAMELLIA128-SHA",
      "DHE-RSA-CAMELLIA256-SHA",
      "DHE-RSA-SEED-SHA",
      "ECDH-ECDSA-AES128-GCM-SHA256",
      "ECDH-ECDSA-AES128-SHA",
      "ECDH-ECDSA-AES128-SHA256",
      "ECDH-ECDSA-AES256-GCM-SHA384",
      "ECDH-ECDSA-AES256-SHA",
      "ECDH-ECDSA-AES256-SHA384",
      "ECDH-ECDSA-DES-CBC3-SHA",
      "ECDH-ECDSA-RC4-SHA",
      "ECDH-RSA-AES128-GCM-SHA256",
      "ECDH-RSA-AES128-SHA",
      "ECDH-RSA-AES128-SHA256",
      "ECDH-RSA-AES256-GCM-SHA384",
      "ECDH-RSA-AES256-SHA",
      "ECDH-RSA-AES256-SHA384",
      "ECDH-RSA-DES-CBC3-SHA",
      "ECDH-RSA-RC4-SHA",
      "ECDHE-ECDSA-AES128-GCM-SHA256",
      "ECDHE-ECDSA-AES128-SHA",
      "ECDHE-ECDSA-AES128-SHA256",
      "ECDHE-ECDSA-AES256-GCM-SHA384",
      "ECDHE-ECDSA-AES256-SHA",
      "ECDHE-ECDSA-AES256-SHA384",
      "ECDHE-ECDSA-DES-CBC3-SHA",
      "ECDHE-ECDSA-RC4-SHA",
      "ECDHE-RSA-AES128-GCM-SHA256",
      "ECDHE-RSA-AES128-SHA",
      "ECDHE-RSA-AES128-SHA256",
      "ECDHE-RSA-AES256-GCM-SHA384",
      "ECDHE-RSA-AES256-SHA",
      "ECDHE-RSA-AES256-SHA384",
      "ECDHE-RSA-DES-CBC3-SHA",
      "ECDHE-RSA-RC4-SHA",
      "EDH-DSS-DES-CBC3-SHA",
      "EDH-RSA-DES-CBC3-SHA",
      "IDEA-CBC-SHA",
      "PSK-3DES-EDE-CBC-SHA",
      "PSK-AES128-CBC-SHA",
      "PSK-AES256-CBC-SHA",
      "PSK-RC4-SHA",
      "RC4-MD5",
      "RC4-SHA",
      "SEED-SHA",
      "SRP-3DES-EDE-CBC-SHA",
      "SRP-AES-128-CBC-SHA",
      "SRP-AES-256-CBC-SHA",
      "SRP-DSS-3DES-EDE-CBC-SHA",
      "SRP-DSS-AES-128-CBC-SHA",
      "SRP-DSS-AES-256-CBC-SHA",
      "SRP-RSA-3DES-EDE-CBC-SHA",
      "SRP-RSA-AES-128-CBC-SHA",
      "SRP-RSA-AES-256-CBC-SHA"
    ]
  },
  "1.0.2o": {
    "node": [
      "9.10.0",
      "9.10.1",
      "9.11.0",
      "9.11.1",
      "9.11.2",
      "6.14.0",
      "6.14.1",
      "6.14.2",
      "6.14.3",
      "8.11.0",
      "8.11.1",
      "8.11.2",
      "8.11.3"
    ],
    "ciphers": [
      "AES128-GCM-SHA256",
      "AES128-SHA",
      "AES128-SHA256",
      "AES256-GCM-SHA384",
      "AES256-SHA",
      "AES256-SHA256",
      "CAMELLIA128-SHA",
      "CAMELLIA256-SHA",
      "DES-CBC3-SHA",
      "DH-DSS-AES128-GCM-SHA256",
      "DH-DSS-AES128-SHA",
      "DH-DSS-AES128-SHA256",
      "DH-DSS-AES256-GCM-SHA384",
      "DH-DSS-AES256-SHA",
      "DH-DSS-AES256-SHA256",
      "DH-DSS-CAMELLIA128-SHA",
      "DH-DSS-CAMELLIA256-SHA",
      "DH-DSS-DES-CBC3-SHA",
      "DH-DSS-SEED-SHA",
      "DH-RSA-AES128-GCM-SHA256",
      "DH-RSA-AES128-SHA",
      "DH-RSA-AES128-SHA256",
      "DH-RSA-AES256-GCM-SHA384",
      "DH-RSA-AES256-SHA",
      "DH-RSA-AES256-SHA256",
      "DH-RSA-CAMELLIA128-SHA",
      "DH-RSA-CAMELLIA256-SHA",
      "DH-RSA-DES-CBC3-SHA",
      "DH-RSA-SEED-SHA",
      "DHE-DSS-AES128-GCM-SHA256",
      "DHE-DSS-AES128-SHA",
      "DHE-DSS-AES128-SHA256",
      "DHE-DSS-AES256-GCM-SHA384",
      "DHE-DSS-AES256-SHA",
      "DHE-DSS-AES256-SHA256",
      "DHE-DSS-CAMELLIA128-SHA",
      "DHE-DSS-CAMELLIA256-SHA",
      "DHE-DSS-SEED-SHA",
      "DHE-RSA-AES128-GCM-SHA256",
      "DHE-RSA-AES128-SHA",
      "DHE-RSA-AES128-SHA256",
      "DHE-RSA-AES256-GCM-SHA384",
      "DHE-RSA-AES256-SHA",
      "DHE-RSA-AES256-SHA256",
      "DHE-RSA-CAMELLIA128-SHA",
      "DHE-RSA-CAMELLIA256-SHA",
      "DHE-RSA-SEED-SHA",
      "ECDH-ECDSA-AES128-GCM-SHA256",
      "ECDH-ECDSA-AES128-SHA",
      "ECDH-ECDSA-AES128-SHA256",
      "ECDH-ECDSA-AES256-GCM-SHA384",
      "ECDH-ECDSA-AES256-SHA",
      "ECDH-ECDSA-AES256-SHA384",
      "ECDH-ECDSA-DES-CBC3-SHA",
      "ECDH-ECDSA-RC4-SHA",
      "ECDH-RSA-AES128-GCM-SHA256",
      "ECDH-RSA-AES128-SHA",
      "ECDH-RSA-AES128-SHA256",
      "ECDH-RSA-AES256-GCM-SHA384",
      "ECDH-RSA-AES256-SHA",
      "ECDH-RSA-AES256-SHA384",
      "ECDH-RSA-DES-CBC3-SHA",
      "ECDH-RSA-RC4-SHA",
      "ECDHE-ECDSA-AES128-GCM-SHA256",
      "ECDHE-ECDSA-AES128-SHA",
      "ECDHE-ECDSA-AES128-SHA256",
      "ECDHE-ECDSA-AES256-GCM-SHA384",
      "ECDHE-ECDSA-AES256-SHA",
      "ECDHE-ECDSA-AES256-SHA384",
      "ECDHE-ECDSA-DES-CBC3-SHA",
      "ECDHE-ECDSA-RC4-SHA",
      "ECDHE-RSA-AES128-GCM-SHA256",
      "ECDHE-RSA-AES128-SHA",
      "ECDHE-RSA-AES128-SHA256",
      "ECDHE-RSA-AES256-GCM-SHA384",
      "ECDHE-RSA-AES256-SHA",
      "ECDHE-RSA-AES256-SHA384",
      "ECDHE-RSA-DES-CBC3-SHA",
      "ECDHE-RSA-RC4-SHA",
      "EDH-DSS-DES-CBC3-SHA",
      "EDH-RSA-DES-CBC3-SHA",
      "IDEA-CBC-SHA",
      "PSK-3DES-EDE-CBC-SHA",
      "PSK-AES128-CBC-SHA",
      "PSK-AES256-CBC-SHA",
      "PSK-RC4-SHA",
      "RC4-MD5",
      "RC4-SHA",
      "SEED-SHA",
      "SRP-3DES-EDE-CBC-SHA",
      "SRP-AES-128-CBC-SHA",
      "SRP-AES-256-CBC-SHA",
      "SRP-DSS-3DES-EDE-CBC-SHA",
      "SRP-DSS-AES-128-CBC-SHA",
      "SRP-DSS-AES-256-CBC-SHA",
      "SRP-RSA-3DES-EDE-CBC-SHA",
      "SRP-RSA-AES-128-CBC-SHA",
      "SRP-RSA-AES-256-CBC-SHA"
    ]
  },
  "1.0.2j": {
    "node": [
      "6.7.0",
      "6.8.0",
      "6.8.1",
      "6.9.0",
      "6.9.1",
      "6.9.2",
      "6.9.3",
      "6.9.4",
      "7.0.0",
      "7.1.0",
      "7.2.0",
      "7.2.1",
      "7.3.0",
      "7.4.0"
    ],
    "ciphers": [
      "AES128-GCM-SHA256",
      "AES128-SHA",
      "AES128-SHA256",
      "AES256-GCM-SHA384",
      "AES256-SHA",
      "AES256-SHA256",
      "CAMELLIA128-SHA",
      "CAMELLIA256-SHA",
      "DES-CBC3-SHA",
      "DH-DSS-AES128-GCM-SHA256",
      "DH-DSS-AES128-SHA",
      "DH-DSS-AES128-SHA256",
      "DH-DSS-AES256-GCM-SHA384",
      "DH-DSS-AES256-SHA",
      "DH-DSS-AES256-SHA256",
      "DH-DSS-CAMELLIA128-SHA",
      "DH-DSS-CAMELLIA256-SHA",
      "DH-DSS-DES-CBC3-SHA",
      "DH-DSS-SEED-SHA",
      "DH-RSA-AES128-GCM-SHA256",
      "DH-RSA-AES128-SHA",
      "DH-RSA-AES128-SHA256",
      "DH-RSA-AES256-GCM-SHA384",
      "DH-RSA-AES256-SHA",
      "DH-RSA-AES256-SHA256",
      "DH-RSA-CAMELLIA128-SHA",
      "DH-RSA-CAMELLIA256-SHA",
      "DH-RSA-DES-CBC3-SHA",
      "DH-RSA-SEED-SHA",
      "DHE-DSS-AES128-GCM-SHA256",
      "DHE-DSS-AES128-SHA",
      "DHE-DSS-AES128-SHA256",
      "DHE-DSS-AES256-GCM-SHA384",
      "DHE-DSS-AES256-SHA",
      "DHE-DSS-AES256-SHA256",
      "DHE-DSS-CAMELLIA128-SHA",
      "DHE-DSS-CAMELLIA256-SHA",
      "DHE-DSS-SEED-SHA",
      "DHE-RSA-AES128-GCM-SHA256",
      "DHE-RSA-AES128-SHA",
      "DHE-RSA-AES128-SHA256",
      "DHE-RSA-AES256-GCM-SHA384",
      "DHE-RSA-AES256-SHA",
      "DHE-RSA-AES256-SHA256",
      "DHE-RSA-CAMELLIA128-SHA",
      "DHE-RSA-CAMELLIA256-SHA",
      "DHE-RSA-SEED-SHA",
      "ECDH-ECDSA-AES128-GCM-SHA256",
      "ECDH-ECDSA-AES128-SHA",
      "ECDH-ECDSA-AES128-SHA256",
      "ECDH-ECDSA-AES256-GCM-SHA384",
      "ECDH-ECDSA-AES256-SHA",
      "ECDH-ECDSA-AES256-SHA384",
      "ECDH-ECDSA-DES-CBC3-SHA",
      "ECDH-ECDSA-RC4-SHA",
      "ECDH-RSA-AES128-GCM-SHA256",
      "ECDH-RSA-AES128-SHA",
      "ECDH-RSA-AES128-SHA256",
      "ECDH-RSA-AES256-GCM-SHA384",
      "ECDH-RSA-AES256-SHA",
      "ECDH-RSA-AES256-SHA384",
      "ECDH-RSA-DES-CBC3-SHA",
      "ECDH-RSA-RC4-SHA",
      "ECDHE-ECDSA-AES128-GCM-SHA256",
      "ECDHE-ECDSA-AES128-SHA",
      "ECDHE-ECDSA-AES128-SHA256",
      "ECDHE-ECDSA-AES256-GCM-SHA384",
      "ECDHE-ECDSA-AES256-SHA",
      "ECDHE-ECDSA-AES256-SHA384",
      "ECDHE-ECDSA-DES-CBC3-SHA",
      "ECDHE-ECDSA-RC4-SHA",
      "ECDHE-RSA-AES128-GCM-SHA256",
      "ECDHE-RSA-AES128-SHA",
      "ECDHE-RSA-AES128-SHA256",
      "ECDHE-RSA-AES256-GCM-SHA384",
      "ECDHE-RSA-AES256-SHA",
      "ECDHE-RSA-AES256-SHA384",
      "ECDHE-RSA-DES-CBC3-SHA",
      "ECDHE-RSA-RC4-SHA",
      "EDH-DSS-DES-CBC3-SHA",
      "EDH-RSA-DES-CBC3-SHA",
      "IDEA-CBC-SHA",
      "PSK-3DES-EDE-CBC-SHA",
      "PSK-AES128-CBC-SHA",
      "PSK-AES256-CBC-SHA",
      "PSK-RC4-SHA",
      "RC4-MD5",
      "RC4-SHA",
      "SEED-SHA",
      "SRP-3DES-EDE-CBC-SHA",
      "SRP-AES-128-CBC-SHA",
      "SRP-AES-256-CBC-SHA",
      "SRP-DSS-3DES-EDE-CBC-SHA",
      "SRP-DSS-AES-128-CBC-SHA",
      "SRP-DSS-AES-256-CBC-SHA",
      "SRP-RSA-3DES-EDE-CBC-SHA",
      "SRP-RSA-AES-128-CBC-SHA",
      "SRP-RSA-AES-256-CBC-SHA"
    ]
  },
  "1.1.0h": {
    "node": [
      "10.0.0",
      "10.1.0",
      "10.2.0",
      "10.2.1",
      "10.3.0",
      "10.4.0",
      "10.4.1",
      "10.5.0",
      "10.6.0",
      "10.7.0",
      "10.8.0"
    ],
    "ciphers": [
      "AES128-GCM-SHA256",
      "AES128-SHA",
      "AES128-SHA256",
      "AES256-GCM-SHA384",
      "AES256-SHA",
      "AES256-SHA256",
      "DHE-PSK-AES128-CBC-SHA",
      "DHE-PSK-AES128-CBC-SHA256",
      "DHE-PSK-AES128-GCM-SHA256",
      "DHE-PSK-AES256-CBC-SHA",
      "DHE-PSK-AES256-CBC-SHA384",
      "DHE-PSK-AES256-GCM-SHA384",
      "DHE-PSK-CHACHA20-POLY1305",
      "DHE-RSA-AES128-GCM-SHA256",
      "DHE-RSA-AES128-SHA",
      "DHE-RSA-AES128-SHA256",
      "DHE-RSA-AES256-GCM-SHA384",
      "DHE-RSA-AES256-SHA",
      "DHE-RSA-AES256-SHA256",
      "DHE-RSA-CHACHA20-POLY1305",
      "ECDHE-ECDSA-AES128-GCM-SHA256",
      "ECDHE-ECDSA-AES128-SHA",
      "ECDHE-ECDSA-AES128-SHA256",
      "ECDHE-ECDSA-AES256-GCM-SHA384",
      "ECDHE-ECDSA-AES256-SHA",
      "ECDHE-ECDSA-AES256-SHA384",
      "ECDHE-ECDSA-CHACHA20-POLY1305",
      "ECDHE-PSK-AES128-CBC-SHA",
      "ECDHE-PSK-AES128-CBC-SHA256",
      "ECDHE-PSK-AES256-CBC-SHA",
      "ECDHE-PSK-AES256-CBC-SHA384",
      "ECDHE-PSK-CHACHA20-POLY1305",
      "ECDHE-RSA-AES128-GCM-SHA256",
      "ECDHE-RSA-AES128-SHA",
      "ECDHE-RSA-AES128-SHA256",
      "ECDHE-RSA-AES256-GCM-SHA384",
      "ECDHE-RSA-AES256-SHA",
      "ECDHE-RSA-AES256-SHA384",
      "ECDHE-RSA-CHACHA20-POLY1305",
      "PSK-AES128-CBC-SHA",
      "PSK-AES128-CBC-SHA256",
      "PSK-AES128-GCM-SHA256",
      "PSK-AES256-CBC-SHA",
      "PSK-AES256-CBC-SHA384",
      "PSK-AES256-GCM-SHA384",
      "PSK-CHACHA20-POLY1305",
      "RSA-PSK-AES128-CBC-SHA",
      "RSA-PSK-AES128-CBC-SHA256",
      "RSA-PSK-AES128-GCM-SHA256",
      "RSA-PSK-AES256-CBC-SHA",
      "RSA-PSK-AES256-CBC-SHA384",
      "RSA-PSK-AES256-GCM-SHA384",
      "RSA-PSK-CHACHA20-POLY1305",
      "SRP-AES-128-CBC-SHA",
      "SRP-AES-256-CBC-SHA",
      "SRP-RSA-AES-128-CBC-SHA",
      "SRP-RSA-AES-256-CBC-SHA"
    ]
  },
  "1.1.0i": {
    "node": [
      "10.9.0",
      "10.10.0",
      "10.11.0",
      "10.12.0",
      "10.13.0",
      "11.0.0",
      "11.1.0",
      "11.2.0"
    ],
    "ciphers": [
      "AES128-GCM-SHA256",
      "AES128-SHA",
      "AES128-SHA256",
      "AES256-GCM-SHA384",
      "AES256-SHA",
      "AES256-SHA256",
      "DHE-PSK-AES128-CBC-SHA",
      "DHE-PSK-AES128-CBC-SHA256",
      "DHE-PSK-AES128-GCM-SHA256",
      "DHE-PSK-AES256-CBC-SHA",
      "DHE-PSK-AES256-CBC-SHA384",
      "DHE-PSK-AES256-GCM-SHA384",
      "DHE-PSK-CHACHA20-POLY1305",
      "DHE-RSA-AES128-GCM-SHA256",
      "DHE-RSA-AES128-SHA",
      "DHE-RSA-AES128-SHA256",
      "DHE-RSA-AES256-GCM-SHA384",
      "DHE-RSA-AES256-SHA",
      "DHE-RSA-AES256-SHA256",
      "DHE-RSA-CHACHA20-POLY1305",
      "ECDHE-ECDSA-AES128-GCM-SHA256",
      "ECDHE-ECDSA-AES128-SHA",
      "ECDHE-ECDSA-AES128-SHA256",
      "ECDHE-ECDSA-AES256-GCM-SHA384",
      "ECDHE-ECDSA-AES256-SHA",
      "ECDHE-ECDSA-AES256-SHA384",
      "ECDHE-ECDSA-CHACHA20-POLY1305",
      "ECDHE-PSK-AES128-CBC-SHA",
      "ECDHE-PSK-AES128-CBC-SHA256",
      "ECDHE-PSK-AES256-CBC-SHA",
      "ECDHE-PSK-AES256-CBC-SHA384",
      "ECDHE-PSK-CHACHA20-POLY1305",
      "ECDHE-RSA-AES128-GCM-SHA256",
      "ECDHE-RSA-AES128-SHA",
      "ECDHE-RSA-AES128-SHA256",
      "ECDHE-RSA-AES256-GCM-SHA384",
      "ECDHE-RSA-AES256-SHA",
      "ECDHE-RSA-AES256-SHA384",
      "ECDHE-RSA-CHACHA20-POLY1305",
      "PSK-AES128-CBC-SHA",
      "PSK-AES128-CBC-SHA256",
      "PSK-AES128-GCM-SHA256",
      "PSK-AES256-CBC-SHA",
      "PSK-AES256-CBC-SHA384",
      "PSK-AES256-GCM-SHA384",
      "PSK-CHACHA20-POLY1305",
      "RSA-PSK-AES128-CBC-SHA",
      "RSA-PSK-AES128-CBC-SHA256",
      "RSA-PSK-AES128-GCM-SHA256",
      "RSA-PSK-AES256-CBC-SHA",
      "RSA-PSK-AES256-CBC-SHA384",
      "RSA-PSK-AES256-GCM-SHA384",
      "RSA-PSK-CHACHA20-POLY1305",
      "SRP-AES-128-CBC-SHA",
      "SRP-AES-256-CBC-SHA",
      "SRP-RSA-AES-128-CBC-SHA",
      "SRP-RSA-AES-256-CBC-SHA"
    ]
  },
  "1.1.0j": {
    "node": [
      "10.14.0",
      "10.14.1",
      "10.14.2",
      "10.15.0",
      "10.15.1",
      "10.15.2",
      "10.15.3",
      "11.3.0",
      "11.4.0",
      "11.5.0",
      "11.6.0",
      "11.7.0",
      "11.8.0"
    ],
    "ciphers": [
      "AES128-GCM-SHA256",
      "AES128-SHA",
      "AES128-SHA256",
      "AES256-GCM-SHA384",
      "AES256-SHA",
      "AES256-SHA256",
      "DHE-PSK-AES128-CBC-SHA",
      "DHE-PSK-AES128-CBC-SHA256",
      "DHE-PSK-AES128-GCM-SHA256",
      "DHE-PSK-AES256-CBC-SHA",
      "DHE-PSK-AES256-CBC-SHA384",
      "DHE-PSK-AES256-GCM-SHA384",
      "DHE-PSK-CHACHA20-POLY1305",
      "DHE-RSA-AES128-GCM-SHA256",
      "DHE-RSA-AES128-SHA",
      "DHE-RSA-AES128-SHA256",
      "DHE-RSA-AES256-GCM-SHA384",
      "DHE-RSA-AES256-SHA",
      "DHE-RSA-AES256-SHA256",
      "DHE-RSA-CHACHA20-POLY1305",
      "ECDHE-ECDSA-AES128-GCM-SHA256",
      "ECDHE-ECDSA-AES128-SHA",
      "ECDHE-ECDSA-AES128-SHA256",
      "ECDHE-ECDSA-AES256-GCM-SHA384",
      "ECDHE-ECDSA-AES256-SHA",
      "ECDHE-ECDSA-AES256-SHA384",
      "ECDHE-ECDSA-CHACHA20-POLY1305",
      "ECDHE-PSK-AES128-CBC-SHA",
      "ECDHE-PSK-AES128-CBC-SHA256",
      "ECDHE-PSK-AES256-CBC-SHA",
      "ECDHE-PSK-AES256-CBC-SHA384",
      "ECDHE-PSK-CHACHA20-POLY1305",
      "ECDHE-RSA-AES128-GCM-SHA256",
      "ECDHE-RSA-AES128-SHA",
      "ECDHE-RSA-AES128-SHA256",
      "ECDHE-RSA-AES256-GCM-SHA384",
      "ECDHE-RSA-AES256-SHA",
      "ECDHE-RSA-AES256-SHA384",
      "ECDHE-RSA-CHACHA20-POLY1305",
      "PSK-AES128-CBC-SHA",
      "PSK-AES128-CBC-SHA256",
      "PSK-AES128-GCM-SHA256",
      "PSK-AES256-CBC-SHA",
      "PSK-AES256-CBC-SHA384",
      "PSK-AES256-GCM-SHA384",
      "PSK-CHACHA20-POLY1305",
      "RSA-PSK-AES128-CBC-SHA",
      "RSA-PSK-AES128-CBC-SHA256",
      "RSA-PSK-AES128-GCM-SHA256",
      "RSA-PSK-AES256-CBC-SHA",
      "RSA-PSK-AES256-CBC-SHA384",
      "RSA-PSK-AES256-GCM-SHA384",
      "RSA-PSK-CHACHA20-POLY1305",
      "SRP-AES-128-CBC-SHA",
      "SRP-AES-256-CBC-SHA",
      "SRP-RSA-AES-128-CBC-SHA",
      "SRP-RSA-AES-256-CBC-SHA"
    ]
  },
  "1.1.1a": {
    "node": [
      "11.9.0",
      "11.10.0",
      "11.10.1",
      "11.11.0"
    ],
    "ciphers": [
      "AES128-GCM-SHA256",
      "AES128-SHA",
      "AES128-SHA256",
      "AES256-GCM-SHA384",
      "AES256-SHA",
      "AES256-SHA256",
      "DHE-PSK-AES128-CBC-SHA",
      "DHE-PSK-AES128-CBC-SHA256",
      "DHE-PSK-AES128-GCM-SHA256",
      "DHE-PSK-AES256-CBC-SHA",
      "DHE-PSK-AES256-CBC-SHA384",
      "DHE-PSK-AES256-GCM-SHA384",
      "DHE-PSK-CHACHA20-POLY1305",
      "DHE-RSA-AES128-GCM-SHA256",
      "DHE-RSA-AES128-SHA",
      "DHE-RSA-AES128-SHA256",
      "DHE-RSA-AES256-GCM-SHA384",
      "DHE-RSA-AES256-SHA",
      "DHE-RSA-AES256-SHA256",
      "DHE-RSA-CHACHA20-POLY1305",
      "ECDHE-ECDSA-AES128-GCM-SHA256",
      "ECDHE-ECDSA-AES128-SHA",
      "ECDHE-ECDSA-AES128-SHA256",
      "ECDHE-ECDSA-AES256-GCM-SHA384",
      "ECDHE-ECDSA-AES256-SHA",
      "ECDHE-ECDSA-AES256-SHA384",
      "ECDHE-ECDSA-CHACHA20-POLY1305",
      "ECDHE-PSK-AES128-CBC-SHA",
      "ECDHE-PSK-AES128-CBC-SHA256",
      "ECDHE-PSK-AES256-CBC-SHA",
      "ECDHE-PSK-AES256-CBC-SHA384",
      "ECDHE-PSK-CHACHA20-POLY1305",
      "ECDHE-RSA-AES128-GCM-SHA256",
      "ECDHE-RSA-AES128-SHA",
      "ECDHE-RSA-AES128-SHA256",
      "ECDHE-RSA-AES256-GCM-SHA384",
      "ECDHE-RSA-AES256-SHA",
      "ECDHE-RSA-AES256-SHA384",
      "ECDHE-RSA-CHACHA20-POLY1305",
      "PSK-AES128-CBC-SHA",
      "PSK-AES128-CBC-SHA256",
      "PSK-AES128-GCM-SHA256",
      "PSK-AES256-CBC-SHA",
      "PSK-AES256-CBC-SHA384",
      "PSK-AES256-GCM-SHA384",
      "PSK-CHACHA20-POLY1305",
      "RSA-PSK-AES128-CBC-SHA",
      "RSA-PSK-AES128-CBC-SHA256",
      "RSA-PSK-AES128-GCM-SHA256",
      "RSA-PSK-AES256-CBC-SHA",
      "RSA-PSK-AES256-CBC-SHA384",
      "RSA-PSK-AES256-GCM-SHA384",
      "RSA-PSK-CHACHA20-POLY1305",
      "SRP-AES-128-CBC-SHA",
      "SRP-AES-256-CBC-SHA",
      "SRP-RSA-AES-128-CBC-SHA",
      "SRP-RSA-AES-256-CBC-SHA",
      "TLS_AES_128_GCM_SHA256",
      "TLS_AES_256_GCM_SHA384",
      "TLS_CHACHA20_POLY1305_SHA256"
    ]
  },
  "1.1.1b": {
    "node": [
      "11.12.0",
      "11.13.0",
      "11.14.0",
      "11.15.0",
      "12.0.0",
      "12.1.0"
    ],
    "ciphers": [
      "AES128-GCM-SHA256",
      "AES128-SHA",
      "AES128-SHA256",
      "AES256-GCM-SHA384",
      "AES256-SHA",
      "AES256-SHA256",
      "DHE-PSK-AES128-CBC-SHA",
      "DHE-PSK-AES128-CBC-SHA256",
      "DHE-PSK-AES128-GCM-SHA256",
      "DHE-PSK-AES256-CBC-SHA",
      "DHE-PSK-AES256-CBC-SHA384",
      "DHE-PSK-AES256-GCM-SHA384",
      "DHE-PSK-CHACHA20-POLY1305",
      "DHE-RSA-AES128-GCM-SHA256",
      "DHE-RSA-AES128-SHA",
      "DHE-RSA-AES128-SHA256",
      "DHE-RSA-AES256-GCM-SHA384",
      "DHE-RSA-AES256-SHA",
      "DHE-RSA-AES256-SHA256",
      "DHE-RSA-CHACHA20-POLY1305",
      "ECDHE-ECDSA-AES128-GCM-SHA256",
      "ECDHE-ECDSA-AES128-SHA",
      "ECDHE-ECDSA-AES128-SHA256",
      "ECDHE-ECDSA-AES256-GCM-SHA384",
      "ECDHE-ECDSA-AES256-SHA",
      "ECDHE-ECDSA-AES256-SHA384",
      "ECDHE-ECDSA-CHACHA20-POLY1305",
      "ECDHE-PSK-AES128-CBC-SHA",
      "ECDHE-PSK-AES128-CBC-SHA256",
      "ECDHE-PSK-AES256-CBC-SHA",
      "ECDHE-PSK-AES256-CBC-SHA384",
      "ECDHE-PSK-CHACHA20-POLY1305",
      "ECDHE-RSA-AES128-GCM-SHA256",
      "ECDHE-RSA-AES128-SHA",
      "ECDHE-RSA-AES128-SHA256",
      "ECDHE-RSA-AES256-GCM-SHA384",
      "ECDHE-RSA-AES256-SHA",
      "ECDHE-RSA-AES256-SHA384",
      "ECDHE-RSA-CHACHA20-POLY1305",
      "PSK-AES128-CBC-SHA",
      "PSK-AES128-CBC-SHA256",
      "PSK-AES128-GCM-SHA256",
      "PSK-AES256-CBC-SHA",
      "PSK-AES256-CBC-SHA384",
      "PSK-AES256-GCM-SHA384",
      "PSK-CHACHA20-POLY1305",
      "RSA-PSK-AES128-CBC-SHA",
      "RSA-PSK-AES128-CBC-SHA256",
      "RSA-PSK-AES128-GCM-SHA256",
      "RSA-PSK-AES256-CBC-SHA",
      "RSA-PSK-AES256-CBC-SHA384",
      "RSA-PSK-AES256-GCM-SHA384",
      "RSA-PSK-CHACHA20-POLY1305",
      "SRP-AES-128-CBC-SHA",
      "SRP-AES-256-CBC-SHA",
      "SRP-RSA-AES-128-CBC-SHA",
      "SRP-RSA-AES-256-CBC-SHA",
      "TLS_AES_128_GCM_SHA256",
      "TLS_AES_256_GCM_SHA384",
      "TLS_CHACHA20_POLY1305_SHA256"
    ]
  },
  "1.0.2k": {
    "node": [
      "6.9.5",
      "6.10.0",
      "6.10.1",
      "6.10.2",
      "6.10.3",
      "6.11.0",
      "6.11.1",
      "7.5.0",
      "7.6.0",
      "7.7.0",
      "7.7.1",
      "7.7.2",
      "7.7.3",
      "7.7.4",
      "7.8.0",
      "7.9.0",
      "7.10.0",
      "7.10.1",
      "8.0.0"
    ],
    "ciphers": [
      "AES128-GCM-SHA256",
      "AES128-SHA",
      "AES128-SHA256",
      "AES256-GCM-SHA384",
      "AES256-SHA",
      "AES256-SHA256",
      "CAMELLIA128-SHA",
      "CAMELLIA256-SHA",
      "DES-CBC3-SHA",
      "DH-DSS-AES128-GCM-SHA256",
      "DH-DSS-AES128-SHA",
      "DH-DSS-AES128-SHA256",
      "DH-DSS-AES256-GCM-SHA384",
      "DH-DSS-AES256-SHA",
      "DH-DSS-AES256-SHA256",
      "DH-DSS-CAMELLIA128-SHA",
      "DH-DSS-CAMELLIA256-SHA",
      "DH-DSS-DES-CBC3-SHA",
      "DH-DSS-SEED-SHA",
      "DH-RSA-AES128-GCM-SHA256",
      "DH-RSA-AES128-SHA",
      "DH-RSA-AES128-SHA256",
      "DH-RSA-AES256-GCM-SHA384",
      "DH-RSA-AES256-SHA",
      "DH-RSA-AES256-SHA256",
      "DH-RSA-CAMELLIA128-SHA",
      "DH-RSA-CAMELLIA256-SHA",
      "DH-RSA-DES-CBC3-SHA",
      "DH-RSA-SEED-SHA",
      "DHE-DSS-AES128-GCM-SHA256",
      "DHE-DSS-AES128-SHA",
      "DHE-DSS-AES128-SHA256",
      "DHE-DSS-AES256-GCM-SHA384",
      "DHE-DSS-AES256-SHA",
      "DHE-DSS-AES256-SHA256",
      "DHE-DSS-CAMELLIA128-SHA",
      "DHE-DSS-CAMELLIA256-SHA",
      "DHE-DSS-SEED-SHA",
      "DHE-RSA-AES128-GCM-SHA256",
      "DHE-RSA-AES128-SHA",
      "DHE-RSA-AES128-SHA256",
      "DHE-RSA-AES256-GCM-SHA384",
      "DHE-RSA-AES256-SHA",
      "DHE-RSA-AES256-SHA256",
      "DHE-RSA-CAMELLIA128-SHA",
      "DHE-RSA-CAMELLIA256-SHA",
      "DHE-RSA-SEED-SHA",
      "ECDH-ECDSA-AES128-GCM-SHA256",
      "ECDH-ECDSA-AES128-SHA",
      "ECDH-ECDSA-AES128-SHA256",
      "ECDH-ECDSA-AES256-GCM-SHA384",
      "ECDH-ECDSA-AES256-SHA",
      "ECDH-ECDSA-AES256-SHA384",
      "ECDH-ECDSA-DES-CBC3-SHA",
      "ECDH-ECDSA-RC4-SHA",
      "ECDH-RSA-AES128-GCM-SHA256",
      "ECDH-RSA-AES128-SHA",
      "ECDH-RSA-AES128-SHA256",
      "ECDH-RSA-AES256-GCM-SHA384",
      "ECDH-RSA-AES256-SHA",
      "ECDH-RSA-AES256-SHA384",
      "ECDH-RSA-DES-CBC3-SHA",
      "ECDH-RSA-RC4-SHA",
      "ECDHE-ECDSA-AES128-GCM-SHA256",
      "ECDHE-ECDSA-AES128-SHA",
      "ECDHE-ECDSA-AES128-SHA256",
      "ECDHE-ECDSA-AES256-GCM-SHA384",
      "ECDHE-ECDSA-AES256-SHA",
      "ECDHE-ECDSA-AES256-SHA384",
      "ECDHE-ECDSA-DES-CBC3-SHA",
      "ECDHE-ECDSA-RC4-SHA",
      "ECDHE-RSA-AES128-GCM-SHA256",
      "ECDHE-RSA-AES128-SHA",
      "ECDHE-RSA-AES128-SHA256",
      "ECDHE-RSA-AES256-GCM-SHA384",
      "ECDHE-RSA-AES256-SHA",
      "ECDHE-RSA-AES256-SHA384",
      "ECDHE-RSA-DES-CBC3-SHA",
      "ECDHE-RSA-RC4-SHA",
      "EDH-DSS-DES-CBC3-SHA",
      "EDH-RSA-DES-CBC3-SHA",
      "IDEA-CBC-SHA",
      "PSK-3DES-EDE-CBC-SHA",
      "PSK-AES128-CBC-SHA",
      "PSK-AES256-CBC-SHA",
      "PSK-RC4-SHA",
      "RC4-MD5",
      "RC4-SHA",
      "SEED-SHA",
      "SRP-3DES-EDE-CBC-SHA",
      "SRP-AES-128-CBC-SHA",
      "SRP-AES-256-CBC-SHA",
      "SRP-DSS-3DES-EDE-CBC-SHA",
      "SRP-DSS-AES-128-CBC-SHA",
      "SRP-DSS-AES-256-CBC-SHA",
      "SRP-RSA-3DES-EDE-CBC-SHA",
      "SRP-RSA-AES-128-CBC-SHA",
      "SRP-RSA-AES-256-CBC-SHA"
    ]
  },
  "1.0.2l": {
    "node": [
      "6.11.2",
      "6.11.3",
      "6.11.4",
      "6.11.5",
      "8.1.0",
      "8.1.1",
      "8.1.2",
      "8.1.3",
      "8.1.4",
      "8.2.0",
      "8.2.1",
      "8.3.0",
      "8.4.0",
      "8.5.0",
      "8.6.0",
      "8.7.0",
      "8.8.0",
      "8.8.1",
      "8.9.0",
      "9.0.0"
    ],
    "ciphers": [
      "AES128-GCM-SHA256",
      "AES128-SHA",
      "AES128-SHA256",
      "AES256-GCM-SHA384",
      "AES256-SHA",
      "AES256-SHA256",
      "CAMELLIA128-SHA",
      "CAMELLIA256-SHA",
      "DES-CBC3-SHA",
      "DH-DSS-AES128-GCM-SHA256",
      "DH-DSS-AES128-SHA",
      "DH-DSS-AES128-SHA256",
      "DH-DSS-AES256-GCM-SHA384",
      "DH-DSS-AES256-SHA",
      "DH-DSS-AES256-SHA256",
      "DH-DSS-CAMELLIA128-SHA",
      "DH-DSS-CAMELLIA256-SHA",
      "DH-DSS-DES-CBC3-SHA",
      "DH-DSS-SEED-SHA",
      "DH-RSA-AES128-GCM-SHA256",
      "DH-RSA-AES128-SHA",
      "DH-RSA-AES128-SHA256",
      "DH-RSA-AES256-GCM-SHA384",
      "DH-RSA-AES256-SHA",
      "DH-RSA-AES256-SHA256",
      "DH-RSA-CAMELLIA128-SHA",
      "DH-RSA-CAMELLIA256-SHA",
      "DH-RSA-DES-CBC3-SHA",
      "DH-RSA-SEED-SHA",
      "DHE-DSS-AES128-GCM-SHA256",
      "DHE-DSS-AES128-SHA",
      "DHE-DSS-AES128-SHA256",
      "DHE-DSS-AES256-GCM-SHA384",
      "DHE-DSS-AES256-SHA",
      "DHE-DSS-AES256-SHA256",
      "DHE-DSS-CAMELLIA128-SHA",
      "DHE-DSS-CAMELLIA256-SHA",
      "DHE-DSS-SEED-SHA",
      "DHE-RSA-AES128-GCM-SHA256",
      "DHE-RSA-AES128-SHA",
      "DHE-RSA-AES128-SHA256",
      "DHE-RSA-AES256-GCM-SHA384",
      "DHE-RSA-AES256-SHA",
      "DHE-RSA-AES256-SHA256",
      "DHE-RSA-CAMELLIA128-SHA",
      "DHE-RSA-CAMELLIA256-SHA",
      "DHE-RSA-SEED-SHA",
      "ECDH-ECDSA-AES128-GCM-SHA256",
      "ECDH-ECDSA-AES128-SHA",
      "ECDH-ECDSA-AES128-SHA256",
      "ECDH-ECDSA-AES256-GCM-SHA384",
      "ECDH-ECDSA-AES256-SHA",
      "ECDH-ECDSA-AES256-SHA384",
      "ECDH-ECDSA-DES-CBC3-SHA",
      "ECDH-ECDSA-RC4-SHA",
      "ECDH-RSA-AES128-GCM-SHA256",
      "ECDH-RSA-AES128-SHA",
      "ECDH-RSA-AES128-SHA256",
      "ECDH-RSA-AES256-GCM-SHA384",
      "ECDH-RSA-AES256-SHA",
      "ECDH-RSA-AES256-SHA384",
      "ECDH-RSA-DES-CBC3-SHA",
      "ECDH-RSA-RC4-SHA",
      "ECDHE-ECDSA-AES128-GCM-SHA256",
      "ECDHE-ECDSA-AES128-SHA",
      "ECDHE-ECDSA-AES128-SHA256",
      "ECDHE-ECDSA-AES256-GCM-SHA384",
      "ECDHE-ECDSA-AES256-SHA",
      "ECDHE-ECDSA-AES256-SHA384",
      "ECDHE-ECDSA-DES-CBC3-SHA",
      "ECDHE-ECDSA-RC4-SHA",
      "ECDHE-RSA-AES128-GCM-SHA256",
      "ECDHE-RSA-AES128-SHA",
      "ECDHE-RSA-AES128-SHA256",
      "ECDHE-RSA-AES256-GCM-SHA384",
      "ECDHE-RSA-AES256-SHA",
      "ECDHE-RSA-AES256-SHA384",
      "ECDHE-RSA-DES-CBC3-SHA",
      "ECDHE-RSA-RC4-SHA",
      "EDH-DSS-DES-CBC3-SHA",
      "EDH-RSA-DES-CBC3-SHA",
      "IDEA-CBC-SHA",
      "PSK-3DES-EDE-CBC-SHA",
      "PSK-AES128-CBC-SHA",
      "PSK-AES256-CBC-SHA",
      "PSK-RC4-SHA",
      "RC4-MD5",
      "RC4-SHA",
      "SEED-SHA",
      "SRP-3DES-EDE-CBC-SHA",
      "SRP-AES-128-CBC-SHA",
      "SRP-AES-256-CBC-SHA",
      "SRP-DSS-3DES-EDE-CBC-SHA",
      "SRP-DSS-AES-128-CBC-SHA",
      "SRP-DSS-AES-256-CBC-SHA",
      "SRP-RSA-3DES-EDE-CBC-SHA",
      "SRP-RSA-AES-128-CBC-SHA",
      "SRP-RSA-AES-256-CBC-SHA"
    ]
  },
  "1.0.2m": {
    "node": [
      "6.12.0",
      "6.12.1",
      "8.9.1",
      "8.9.2",
      "9.1.0",
      "9.2.0"
    ],
    "ciphers": [
      "AES128-GCM-SHA256",
      "AES128-SHA",
      "AES128-SHA256",
      "AES256-GCM-SHA384",
      "AES256-SHA",
      "AES256-SHA256",
      "CAMELLIA128-SHA",
      "CAMELLIA256-SHA",
      "DES-CBC3-SHA",
      "DH-DSS-AES128-GCM-SHA256",
      "DH-DSS-AES128-SHA",
      "DH-DSS-AES128-SHA256",
      "DH-DSS-AES256-GCM-SHA384",
      "DH-DSS-AES256-SHA",
      "DH-DSS-AES256-SHA256",
      "DH-DSS-CAMELLIA128-SHA",
      "DH-DSS-CAMELLIA256-SHA",
      "DH-DSS-DES-CBC3-SHA",
      "DH-DSS-SEED-SHA",
      "DH-RSA-AES128-GCM-SHA256",
      "DH-RSA-AES128-SHA",
      "DH-RSA-AES128-SHA256",
      "DH-RSA-AES256-GCM-SHA384",
      "DH-RSA-AES256-SHA",
      "DH-RSA-AES256-SHA256",
      "DH-RSA-CAMELLIA128-SHA",
      "DH-RSA-CAMELLIA256-SHA",
      "DH-RSA-DES-CBC3-SHA",
      "DH-RSA-SEED-SHA",
      "DHE-DSS-AES128-GCM-SHA256",
      "DHE-DSS-AES128-SHA",
      "DHE-DSS-AES128-SHA256",
      "DHE-DSS-AES256-GCM-SHA384",
      "DHE-DSS-AES256-SHA",
      "DHE-DSS-AES256-SHA256",
      "DHE-DSS-CAMELLIA128-SHA",
      "DHE-DSS-CAMELLIA256-SHA",
      "DHE-DSS-SEED-SHA",
      "DHE-RSA-AES128-GCM-SHA256",
      "DHE-RSA-AES128-SHA",
      "DHE-RSA-AES128-SHA256",
      "DHE-RSA-AES256-GCM-SHA384",
      "DHE-RSA-AES256-SHA",
      "DHE-RSA-AES256-SHA256",
      "DHE-RSA-CAMELLIA128-SHA",
      "DHE-RSA-CAMELLIA256-SHA",
      "DHE-RSA-SEED-SHA",
      "ECDH-ECDSA-AES128-GCM-SHA256",
      "ECDH-ECDSA-AES128-SHA",
      "ECDH-ECDSA-AES128-SHA256",
      "ECDH-ECDSA-AES256-GCM-SHA384",
      "ECDH-ECDSA-AES256-SHA",
      "ECDH-ECDSA-AES256-SHA384",
      "ECDH-ECDSA-DES-CBC3-SHA",
      "ECDH-ECDSA-RC4-SHA",
      "ECDH-RSA-AES128-GCM-SHA256",
      "ECDH-RSA-AES128-SHA",
      "ECDH-RSA-AES128-SHA256",
      "ECDH-RSA-AES256-GCM-SHA384",
      "ECDH-RSA-AES256-SHA",
      "ECDH-RSA-AES256-SHA384",
      "ECDH-RSA-DES-CBC3-SHA",
      "ECDH-RSA-RC4-SHA",
      "ECDHE-ECDSA-AES128-GCM-SHA256",
      "ECDHE-ECDSA-AES128-SHA",
      "ECDHE-ECDSA-AES128-SHA256",
      "ECDHE-ECDSA-AES256-GCM-SHA384",
      "ECDHE-ECDSA-AES256-SHA",
      "ECDHE-ECDSA-AES256-SHA384",
      "ECDHE-ECDSA-DES-CBC3-SHA",
      "ECDHE-ECDSA-RC4-SHA",
      "ECDHE-RSA-AES128-GCM-SHA256",
      "ECDHE-RSA-AES128-SHA",
      "ECDHE-RSA-AES128-SHA256",
      "ECDHE-RSA-AES256-GCM-SHA384",
      "ECDHE-RSA-AES256-SHA",
      "ECDHE-RSA-AES256-SHA384",
      "ECDHE-RSA-DES-CBC3-SHA",
      "ECDHE-RSA-RC4-SHA",
      "EDH-DSS-DES-CBC3-SHA",
      "EDH-RSA-DES-CBC3-SHA",
      "IDEA-CBC-SHA",
      "PSK-3DES-EDE-CBC-SHA",
      "PSK-AES128-CBC-SHA",
      "PSK-AES256-CBC-SHA",
      "PSK-RC4-SHA",
      "RC4-MD5",
      "RC4-SHA",
      "SEED-SHA",
      "SRP-3DES-EDE-CBC-SHA",
      "SRP-AES-128-CBC-SHA",
      "SRP-AES-256-CBC-SHA",
      "SRP-DSS-3DES-EDE-CBC-SHA",
      "SRP-DSS-AES-128-CBC-SHA",
      "SRP-DSS-AES-256-CBC-SHA",
      "SRP-RSA-3DES-EDE-CBC-SHA",
      "SRP-RSA-AES-128-CBC-SHA",
      "SRP-RSA-AES-256-CBC-SHA"
    ]
  },
  "1.0.2p": {
    "node": [
      "6.14.4",
      "8.11.4",
      "8.12.0",
      "8.13.0"
    ],
    "ciphers": [
      "AES128-GCM-SHA256",
      "AES128-SHA",
      "AES128-SHA256",
      "AES256-GCM-SHA384",
      "AES256-SHA",
      "AES256-SHA256",
      "CAMELLIA128-SHA",
      "CAMELLIA256-SHA",
      "DES-CBC3-SHA",
      "DH-DSS-AES128-GCM-SHA256",
      "DH-DSS-AES128-SHA",
      "DH-DSS-AES128-SHA256",
      "DH-DSS-AES256-GCM-SHA384",
      "DH-DSS-AES256-SHA",
      "DH-DSS-AES256-SHA256",
      "DH-DSS-CAMELLIA128-SHA",
      "DH-DSS-CAMELLIA256-SHA",
      "DH-DSS-DES-CBC3-SHA",
      "DH-DSS-SEED-SHA",
      "DH-RSA-AES128-GCM-SHA256",
      "DH-RSA-AES128-SHA",
      "DH-RSA-AES128-SHA256",
      "DH-RSA-AES256-GCM-SHA384",
      "DH-RSA-AES256-SHA",
      "DH-RSA-AES256-SHA256",
      "DH-RSA-CAMELLIA128-SHA",
      "DH-RSA-CAMELLIA256-SHA",
      "DH-RSA-DES-CBC3-SHA",
      "DH-RSA-SEED-SHA",
      "DHE-DSS-AES128-GCM-SHA256",
      "DHE-DSS-AES128-SHA",
      "DHE-DSS-AES128-SHA256",
      "DHE-DSS-AES256-GCM-SHA384",
      "DHE-DSS-AES256-SHA",
      "DHE-DSS-AES256-SHA256",
      "DHE-DSS-CAMELLIA128-SHA",
      "DHE-DSS-CAMELLIA256-SHA",
      "DHE-DSS-SEED-SHA",
      "DHE-RSA-AES128-GCM-SHA256",
      "DHE-RSA-AES128-SHA",
      "DHE-RSA-AES128-SHA256",
      "DHE-RSA-AES256-GCM-SHA384",
      "DHE-RSA-AES256-SHA",
      "DHE-RSA-AES256-SHA256",
      "DHE-RSA-CAMELLIA128-SHA",
      "DHE-RSA-CAMELLIA256-SHA",
      "DHE-RSA-SEED-SHA",
      "ECDH-ECDSA-AES128-GCM-SHA256",
      "ECDH-ECDSA-AES128-SHA",
      "ECDH-ECDSA-AES128-SHA256",
      "ECDH-ECDSA-AES256-GCM-SHA384",
      "ECDH-ECDSA-AES256-SHA",
      "ECDH-ECDSA-AES256-SHA384",
      "ECDH-ECDSA-DES-CBC3-SHA",
      "ECDH-ECDSA-RC4-SHA",
      "ECDH-RSA-AES128-GCM-SHA256",
      "ECDH-RSA-AES128-SHA",
      "ECDH-RSA-AES128-SHA256",
      "ECDH-RSA-AES256-GCM-SHA384",
      "ECDH-RSA-AES256-SHA",
      "ECDH-RSA-AES256-SHA384",
      "ECDH-RSA-DES-CBC3-SHA",
      "ECDH-RSA-RC4-SHA",
      "ECDHE-ECDSA-AES128-GCM-SHA256",
      "ECDHE-ECDSA-AES128-SHA",
      "ECDHE-ECDSA-AES128-SHA256",
      "ECDHE-ECDSA-AES256-GCM-SHA384",
      "ECDHE-ECDSA-AES256-SHA",
      "ECDHE-ECDSA-AES256-SHA384",
      "ECDHE-ECDSA-DES-CBC3-SHA",
      "ECDHE-ECDSA-RC4-SHA",
      "ECDHE-RSA-AES128-GCM-SHA256",
      "ECDHE-RSA-AES128-SHA",
      "ECDHE-RSA-AES128-SHA256",
      "ECDHE-RSA-AES256-GCM-SHA384",
      "ECDHE-RSA-AES256-SHA",
      "ECDHE-RSA-AES256-SHA384",
      "ECDHE-RSA-DES-CBC3-SHA",
      "ECDHE-RSA-RC4-SHA",
      "EDH-DSS-DES-CBC3-SHA",
      "EDH-RSA-DES-CBC3-SHA",
      "IDEA-CBC-SHA",
      "PSK-3DES-EDE-CBC-SHA",
      "PSK-AES128-CBC-SHA",
      "PSK-AES256-CBC-SHA",
      "PSK-RC4-SHA",
      "RC4-MD5",
      "RC4-SHA",
      "SEED-SHA",
      "SRP-3DES-EDE-CBC-SHA",
      "SRP-AES-128-CBC-SHA",
      "SRP-AES-256-CBC-SHA",
      "SRP-DSS-3DES-EDE-CBC-SHA",
      "SRP-DSS-AES-128-CBC-SHA",
      "SRP-DSS-AES-256-CBC-SHA",
      "SRP-RSA-3DES-EDE-CBC-SHA",
      "SRP-RSA-AES-128-CBC-SHA",
      "SRP-RSA-AES-256-CBC-SHA"
    ]
  },
  "1.0.2q": {
    "node": [
      "6.15.0",
      "6.15.1",
      "6.16.0",
      "8.14.0",
      "8.14.1",
      "8.15.0"
    ],
    "ciphers": [
      "AES128-GCM-SHA256",
      "AES128-SHA",
      "AES128-SHA256",
      "AES256-GCM-SHA384",
      "AES256-SHA",
      "AES256-SHA256",
      "CAMELLIA128-SHA",
      "CAMELLIA256-SHA",
      "DES-CBC3-SHA",
      "DH-DSS-AES128-GCM-SHA256",
      "DH-DSS-AES128-SHA",
      "DH-DSS-AES128-SHA256",
      "DH-DSS-AES256-GCM-SHA384",
      "DH-DSS-AES256-SHA",
      "DH-DSS-AES256-SHA256",
      "DH-DSS-CAMELLIA128-SHA",
      "DH-DSS-CAMELLIA256-SHA",
      "DH-DSS-DES-CBC3-SHA",
      "DH-DSS-SEED-SHA",
      "DH-RSA-AES128-GCM-SHA256",
      "DH-RSA-AES128-SHA",
      "DH-RSA-AES128-SHA256",
      "DH-RSA-AES256-GCM-SHA384",
      "DH-RSA-AES256-SHA",
      "DH-RSA-AES256-SHA256",
      "DH-RSA-CAMELLIA128-SHA",
      "DH-RSA-CAMELLIA256-SHA",
      "DH-RSA-DES-CBC3-SHA",
      "DH-RSA-SEED-SHA",
      "DHE-DSS-AES128-GCM-SHA256",
      "DHE-DSS-AES128-SHA",
      "DHE-DSS-AES128-SHA256",
      "DHE-DSS-AES256-GCM-SHA384",
      "DHE-DSS-AES256-SHA",
      "DHE-DSS-AES256-SHA256",
      "DHE-DSS-CAMELLIA128-SHA",
      "DHE-DSS-CAMELLIA256-SHA",
      "DHE-DSS-SEED-SHA",
      "DHE-RSA-AES128-GCM-SHA256",
      "DHE-RSA-AES128-SHA",
      "DHE-RSA-AES128-SHA256",
      "DHE-RSA-AES256-GCM-SHA384",
      "DHE-RSA-AES256-SHA",
      "DHE-RSA-AES256-SHA256",
      "DHE-RSA-CAMELLIA128-SHA",
      "DHE-RSA-CAMELLIA256-SHA",
      "DHE-RSA-SEED-SHA",
      "ECDH-ECDSA-AES128-GCM-SHA256",
      "ECDH-ECDSA-AES128-SHA",
      "ECDH-ECDSA-AES128-SHA256",
      "ECDH-ECDSA-AES256-GCM-SHA384",
      "ECDH-ECDSA-AES256-SHA",
      "ECDH-ECDSA-AES256-SHA384",
      "ECDH-ECDSA-DES-CBC3-SHA",
      "ECDH-ECDSA-RC4-SHA",
      "ECDH-RSA-AES128-GCM-SHA256",
      "ECDH-RSA-AES128-SHA",
      "ECDH-RSA-AES128-SHA256",
      "ECDH-RSA-AES256-GCM-SHA384",
      "ECDH-RSA-AES256-SHA",
      "ECDH-RSA-AES256-SHA384",
      "ECDH-RSA-DES-CBC3-SHA",
      "ECDH-RSA-RC4-SHA",
      "ECDHE-ECDSA-AES128-GCM-SHA256",
      "ECDHE-ECDSA-AES128-SHA",
      "ECDHE-ECDSA-AES128-SHA256",
      "ECDHE-ECDSA-AES256-GCM-SHA384",
      "ECDHE-ECDSA-AES256-SHA",
      "ECDHE-ECDSA-AES256-SHA384",
      "ECDHE-ECDSA-DES-CBC3-SHA",
      "ECDHE-ECDSA-RC4-SHA",
      "ECDHE-RSA-AES128-GCM-SHA256",
      "ECDHE-RSA-AES128-SHA",
      "ECDHE-RSA-AES128-SHA256",
      "ECDHE-RSA-AES256-GCM-SHA384",
      "ECDHE-RSA-AES256-SHA",
      "ECDHE-RSA-AES256-SHA384",
      "ECDHE-RSA-DES-CBC3-SHA",
      "ECDHE-RSA-RC4-SHA",
      "EDH-DSS-DES-CBC3-SHA",
      "EDH-RSA-DES-CBC3-SHA",
      "IDEA-CBC-SHA",
      "PSK-3DES-EDE-CBC-SHA",
      "PSK-AES128-CBC-SHA",
      "PSK-AES256-CBC-SHA",
      "PSK-RC4-SHA",
      "RC4-MD5",
      "RC4-SHA",
      "SEED-SHA",
      "SRP-3DES-EDE-CBC-SHA",
      "SRP-AES-128-CBC-SHA",
      "SRP-AES-256-CBC-SHA",
      "SRP-DSS-3DES-EDE-CBC-SHA",
      "SRP-DSS-AES-128-CBC-SHA",
      "SRP-DSS-AES-256-CBC-SHA",
      "SRP-RSA-3DES-EDE-CBC-SHA",
      "SRP-RSA-AES-128-CBC-SHA",
      "SRP-RSA-AES-256-CBC-SHA"
    ]
  },
  "1.0.2r": {
    "node": [
      "6.17.0",
      "6.17.1",
      "8.15.1",
      "8.16.0"
    ],
    "ciphers": [
      "AES128-GCM-SHA256",
      "AES128-SHA",
      "AES128-SHA256",
      "AES256-GCM-SHA384",
      "AES256-SHA",
      "AES256-SHA256",
      "CAMELLIA128-SHA",
      "CAMELLIA256-SHA",
      "DES-CBC3-SHA",
      "DH-DSS-AES128-GCM-SHA256",
      "DH-DSS-AES128-SHA",
      "DH-DSS-AES128-SHA256",
      "DH-DSS-AES256-GCM-SHA384",
      "DH-DSS-AES256-SHA",
      "DH-DSS-AES256-SHA256",
      "DH-DSS-CAMELLIA128-SHA",
      "DH-DSS-CAMELLIA256-SHA",
      "DH-DSS-DES-CBC3-SHA",
      "DH-DSS-SEED-SHA",
      "DH-RSA-AES128-GCM-SHA256",
      "DH-RSA-AES128-SHA",
      "DH-RSA-AES128-SHA256",
      "DH-RSA-AES256-GCM-SHA384",
      "DH-RSA-AES256-SHA",
      "DH-RSA-AES256-SHA256",
      "DH-RSA-CAMELLIA128-SHA",
      "DH-RSA-CAMELLIA256-SHA",
      "DH-RSA-DES-CBC3-SHA",
      "DH-RSA-SEED-SHA",
      "DHE-DSS-AES128-GCM-SHA256",
      "DHE-DSS-AES128-SHA",
      "DHE-DSS-AES128-SHA256",
      "DHE-DSS-AES256-GCM-SHA384",
      "DHE-DSS-AES256-SHA",
      "DHE-DSS-AES256-SHA256",
      "DHE-DSS-CAMELLIA128-SHA",
      "DHE-DSS-CAMELLIA256-SHA",
      "DHE-DSS-SEED-SHA",
      "DHE-RSA-AES128-GCM-SHA256",
      "DHE-RSA-AES128-SHA",
      "DHE-RSA-AES128-SHA256",
      "DHE-RSA-AES256-GCM-SHA384",
      "DHE-RSA-AES256-SHA",
      "DHE-RSA-AES256-SHA256",
      "DHE-RSA-CAMELLIA128-SHA",
      "DHE-RSA-CAMELLIA256-SHA",
      "DHE-RSA-SEED-SHA",
      "ECDH-ECDSA-AES128-GCM-SHA256",
      "ECDH-ECDSA-AES128-SHA",
      "ECDH-ECDSA-AES128-SHA256",
      "ECDH-ECDSA-AES256-GCM-SHA384",
      "ECDH-ECDSA-AES256-SHA",
      "ECDH-ECDSA-AES256-SHA384",
      "ECDH-ECDSA-DES-CBC3-SHA",
      "ECDH-ECDSA-RC4-SHA",
      "ECDH-RSA-AES128-GCM-SHA256",
      "ECDH-RSA-AES128-SHA",
      "ECDH-RSA-AES128-SHA256",
      "ECDH-RSA-AES256-GCM-SHA384",
      "ECDH-RSA-AES256-SHA",
      "ECDH-RSA-AES256-SHA384",
      "ECDH-RSA-DES-CBC3-SHA",
      "ECDH-RSA-RC4-SHA",
      "ECDHE-ECDSA-AES128-GCM-SHA256",
      "ECDHE-ECDSA-AES128-SHA",
      "ECDHE-ECDSA-AES128-SHA256",
      "ECDHE-ECDSA-AES256-GCM-SHA384",
      "ECDHE-ECDSA-AES256-SHA",
      "ECDHE-ECDSA-AES256-SHA384",
      "ECDHE-ECDSA-DES-CBC3-SHA",
      "ECDHE-ECDSA-RC4-SHA",
      "ECDHE-RSA-AES128-GCM-SHA256",
      "ECDHE-RSA-AES128-SHA",
      "ECDHE-RSA-AES128-SHA256",
      "ECDHE-RSA-AES256-GCM-SHA384",
      "ECDHE-RSA-AES256-SHA",
      "ECDHE-RSA-AES256-SHA384",
      "ECDHE-RSA-DES-CBC3-SHA",
      "ECDHE-RSA-RC4-SHA",
      "EDH-DSS-DES-CBC3-SHA",
      "EDH-RSA-DES-CBC3-SHA",
      "IDEA-CBC-SHA",
      "PSK-3DES-EDE-CBC-SHA",
      "PSK-AES128-CBC-SHA",
      "PSK-AES256-CBC-SHA",
      "PSK-RC4-SHA",
      "RC4-MD5",
      "RC4-SHA",
      "SEED-SHA",
      "SRP-3DES-EDE-CBC-SHA",
      "SRP-AES-128-CBC-SHA",
      "SRP-AES-256-CBC-SHA",
      "SRP-DSS-3DES-EDE-CBC-SHA",
      "SRP-DSS-AES-128-CBC-SHA",
      "SRP-DSS-AES-256-CBC-SHA",
      "SRP-RSA-3DES-EDE-CBC-SHA",
      "SRP-RSA-AES-128-CBC-SHA",
      "SRP-RSA-AES-256-CBC-SHA"
    ]
  }
}